xsim.log
#-----------------------------------------------------------
# xsim v2022.1 (64-bit)
# SW Build 3526262 on Mon Apr 18 15:47:01 MDT 2022
# IP Build 3524634 on Mon Apr 18 20:55:01 MDT 2022
# Start of session at: Thu Mar 14 03:54:18 2024
# Process ID: 2106531
# Current directory: /home/ubuntu/advSOC/caravel-soc_fpga-lab/fsic-sim/fsic_fpga/rtl/user/testbench/tc
# Command line: xsim -mode tcl -source {xsim.dir/tb_fsic_xelab/xsim_script.tcl}
# Log file: /home/ubuntu/advSOC/caravel-soc_fpga-lab/fsic-sim/fsic_fpga/rtl/user/testbench/tc/xsim.log
# Journal file: /home/ubuntu/advSOC/caravel-soc_fpga-lab/fsic-sim/fsic_fpga/rtl/user/testbench/tc/xsim.jou
# Running On: ubuntu2004, OS: Linux, CPU Frequency: 3504.002 MHz, CPU Physical cores: 6, Host memory: 67424 MB
#-----------------------------------------------------------
source xsim.dir/tb_fsic_xelab/xsim_script.tcl
# xsim {tb_fsic_xelab} -autoloadwcfg -tclbatch {log_wave.tcl}
Time resolution is 1 ps
open_wave_config /home/ubuntu/advSOC/caravel-soc_fpga-lab/fsic-sim/fsic_fpga/rtl/user/testbench/tc/tb_fsic_xelab.wcfg
WARNING: Simulation object /tb_fsic/dut/U_MPRJ_IO0/vccd1 was not found in the design.
WARNING: Simulation object /tb_fsic/dut/U_MPRJ_IO0/vccd2 was not found in the design.
WARNING: Simulation object /tb_fsic/dut/U_MPRJ_IO0/vssd1 was not found in the design.
WARNING: Simulation object /tb_fsic/dut/U_MPRJ_IO0/vssd2 was not found in the design.
WARNING: Simulation object /tb_fsic/vccd1 was not found in the design.
WARNING: Simulation object /tb_fsic/vccd2 was not found in the design.
WARNING: Simulation object /tb_fsic/vssd1 was not found in the design.
WARNING: Simulation object /tb_fsic/vssd2 was not found in the design.
WARNING: Simulation object /tb_fsic/idx1 was not found in the design.
WARNING: Simulation object /tb_fsic/idx3 was not found in the design.
WARNING: Simulation object /tb_fsic/idx6 was not found in the design.
WARNING: Simulation object /tb_fsic/dut/AXIS_SW0/pre_rd_ptr_reg was not found in the design.
WARNING: Simulation object /tb_fsic/dut/AXIS_SW0/as_up_tvalid_reg was not found in the design.
WARNING: Simulation object /tb_fsic/dut/AXIS_SW0/as_aa_tvalid_reg was not found in the design.
WARNING: Simulation object /tb_fsic/dut/AXIS_SW0/delaynext was not found in the design.
WARNING: Simulation object /tb_fsic/dut/AXIS_SW0/pre_m_axis was not found in the design.
WARNING: Simulation object /tb_fsic/dut/U_USER_SUBSYS0/U_USRPRJ0/reg_edgedetect_done was not found in the design.
WARNING: Simulation object /tb_fsic/dut/U_USER_SUBSYS0/U_USRPRJ0/edgedetect_done was not found in the design.
WARNING: Simulation object /tb_fsic/dut/U_USER_SUBSYS0/U_USRPRJ0/rd_state was not found in the design.
WARNING: Simulation object /tb_fsic/dut/U_USER_SUBSYS0/U_USRPRJ0/rd_next_state was not found in the design.
WARNING: Simulation object /tb_fsic/dut/U_USER_SUBSYS0/U_USRPRJ0/reg_widthIn was not found in the design.
WARNING: Simulation object /tb_fsic/dut/U_USER_SUBSYS0/U_USRPRJ0/reg_heightIn was not found in the design.
WARNING: Simulation object /tb_fsic/dut/U_USER_SUBSYS0/U_USRPRJ0/reg_sw_in was not found in the design.
WARNING: Simulation object /tb_fsic/dut/U_USER_SUBSYS0/U_USRPRJ0/reg_rst was not found in the design.
WARNING: Simulation object /tb_fsic/dut/U_USER_SUBSYS0/U_USRPRJ0/crc32_stream_in was not found in the design.
WARNING: Simulation object /tb_fsic/dut/U_USER_SUBSYS0/U_USRPRJ0/crc32_stream_out was not found in the design.
WARNING: Simulation object /tb_fsic/dut/U_USER_SUBSYS0/U_USRPRJ0/reg_crc32_stream_in was not found in the design.
WARNING: Simulation object /tb_fsic/dut/U_USER_SUBSYS0/U_USRPRJ0/reg_crc32_stream_out was not found in the design.
WARNING: Simulation object /tb_fsic/dut/AXIS_SW0/as_up_tvalid_reg was not found in the design.
WARNING: Simulation object /tb_fsic/dut/AXIS_SW0/pre_rd_ptr_reg was not found in the design.
WARNING: Simulation object /tb_fsic/dut/AXIS_SW0/as_up_tvalid_reg was not found in the design.
WARNING: Simulation object /tb_fsic/dut/AXIS_SW0/as_aa_tvalid_reg was not found in the design.
WARNING: Simulation object /tb_fsic/dut/AXIS_SW0/delaynext was not found in the design.
WARNING: Simulation object /tb_fsic/dut/AXIS_SW0/pre_m_axis was not found in the design.
source log_wave.tcl
## log_wave -quiet -verbose -recursive *
## run all
Test#1 – FIR initialization (tap parameter, length) from SOC side
                 140=> soc POR Assert
                 180=> soc POR De-Assert
                 260=> fpga POR Assert
                 260=> fpga reset Assert
                 300=> fpga POR De-Assert
                 340=> fpga reset De-Assert
                 365=> fpga_as_to_is_init done
                 405=> fpga_cfg_write : fpga_axi_awaddr=0000, fpga_axi_awvalid=1, fpga_axi_awready=1, fpga_axi_wdata=00000001, axi_wstrb=1, fpga_axi_wvalid=1, fpga_axi_wready=1
                 605=> soc_is_cfg_write : wbs_adr=30003000, wbs_sel=0001, wbs_wdata=00000001
                 605=> soc rxen_ctl=1
                 605=> fpga rxen_ctl=1
                1045=> fpga_cfg_write : fpga_axi_awaddr=0000, fpga_axi_awvalid=1, fpga_axi_awready=1, fpga_axi_wdata=00000003, axi_wstrb=1, fpga_axi_wvalid=1, fpga_axi_wready=1
                1205=> soc_is_cfg_write : wbs_adr=30003000, wbs_sel=0001, wbs_wdata=00000003
                1205=> soc txen_ctl=1
                1205=> fpga txen_ctl=1
                1445=> soc_is_cfg_write : wbs_adr=30005000, wbs_sel=0001, wbs_wdata=00000001
                1685=> soc_up_cfg_read : wbs_adr=30000000, wbs_sel=0001
                1685=> soc wishbone read data result : send soc_cfg_read_event
                1685=> soc_up_cfg_read : got soc_cfg_read_event
                1965=> soc_up_cfg_write : wbs_adr=30000010, wbs_sel=0001, wbs_wdata=00000040
                1965=> SOC side to write tap data
                2245=> soc_up_cfg_write : wbs_adr=30000020, wbs_sel=1111, wbs_wdata=00000000
                2525=> soc_up_cfg_write : wbs_adr=30000024, wbs_sel=1111, wbs_wdata=fffffff6
                2805=> soc_up_cfg_write : wbs_adr=30000028, wbs_sel=1111, wbs_wdata=fffffff7
                3085=> soc_up_cfg_write : wbs_adr=3000002c, wbs_sel=1111, wbs_wdata=00000017
                3365=> soc_up_cfg_write : wbs_adr=30000030, wbs_sel=1111, wbs_wdata=00000038
                3645=> soc_up_cfg_write : wbs_adr=30000034, wbs_sel=1111, wbs_wdata=0000003f
                3925=> soc_up_cfg_write : wbs_adr=30000038, wbs_sel=1111, wbs_wdata=00000038
                4205=> soc_up_cfg_write : wbs_adr=3000003c, wbs_sel=1111, wbs_wdata=00000017
                4485=> soc_up_cfg_write : wbs_adr=30000040, wbs_sel=1111, wbs_wdata=fffffff7
                4765=> soc_up_cfg_write : wbs_adr=30000044, wbs_sel=1111, wbs_wdata=fffffff6
                5045=> soc_up_cfg_write : wbs_adr=30000048, wbs_sel=1111, wbs_wdata=00000000
                5045=> SOC side to read tap data
                5285=> soc_up_cfg_read : wbs_adr=30000010, wbs_sel=1111
                5285=> soc wishbone read data result : send soc_cfg_read_event
                5285=> soc_up_cfg_read : got soc_cfg_read_event
                5285=> Read soc_mb_interrupt_status [PASS] cfg_read_data_expect_value[0]=00000040, cfg_read_data_captured[0]=00000040
                5565=> soc_up_cfg_read : wbs_adr=30000020, wbs_sel=1111
                5565=> soc wishbone read data result : send soc_cfg_read_event
                5565=> soc_up_cfg_read : got soc_cfg_read_event
                5565=> Read soc_mb_interrupt_status [PASS] cfg_read_data_expect_value[0]=00000000, cfg_read_data_captured[0]=00000000
                5845=> soc_up_cfg_read : wbs_adr=30000024, wbs_sel=1111
                5845=> soc wishbone read data result : send soc_cfg_read_event
                5845=> soc_up_cfg_read : got soc_cfg_read_event
                5845=> Read soc_mb_interrupt_status [PASS] cfg_read_data_expect_value[0]=fffffff6, cfg_read_data_captured[0]=fffffff6
                6125=> soc_up_cfg_read : wbs_adr=30000028, wbs_sel=1111
                6125=> soc wishbone read data result : send soc_cfg_read_event
                6125=> soc_up_cfg_read : got soc_cfg_read_event
                6125=> Read soc_mb_interrupt_status [PASS] cfg_read_data_expect_value[0]=fffffff7, cfg_read_data_captured[0]=fffffff7
                6405=> soc_up_cfg_read : wbs_adr=3000002c, wbs_sel=1111
                6405=> soc wishbone read data result : send soc_cfg_read_event
                6405=> soc_up_cfg_read : got soc_cfg_read_event
                6405=> Read soc_mb_interrupt_status [PASS] cfg_read_data_expect_value[0]=00000017, cfg_read_data_captured[0]=00000017
                6685=> soc_up_cfg_read : wbs_adr=30000030, wbs_sel=1111
                6685=> soc wishbone read data result : send soc_cfg_read_event
                6685=> soc_up_cfg_read : got soc_cfg_read_event
                6685=> Read soc_mb_interrupt_status [PASS] cfg_read_data_expect_value[0]=00000038, cfg_read_data_captured[0]=00000038
                6965=> soc_up_cfg_read : wbs_adr=30000034, wbs_sel=1111
                6965=> soc wishbone read data result : send soc_cfg_read_event
                6965=> soc_up_cfg_read : got soc_cfg_read_event
                6965=> Read soc_mb_interrupt_status [PASS] cfg_read_data_expect_value[0]=0000003f, cfg_read_data_captured[0]=0000003f
                7245=> soc_up_cfg_read : wbs_adr=30000038, wbs_sel=1111
                7245=> soc wishbone read data result : send soc_cfg_read_event
                7245=> soc_up_cfg_read : got soc_cfg_read_event
                7245=> Read soc_mb_interrupt_status [PASS] cfg_read_data_expect_value[0]=00000038, cfg_read_data_captured[0]=00000038
                7525=> soc_up_cfg_read : wbs_adr=3000003c, wbs_sel=1111
                7525=> soc wishbone read data result : send soc_cfg_read_event
                7525=> soc_up_cfg_read : got soc_cfg_read_event
                7525=> Read soc_mb_interrupt_status [PASS] cfg_read_data_expect_value[0]=00000017, cfg_read_data_captured[0]=00000017
                7805=> soc_up_cfg_read : wbs_adr=30000040, wbs_sel=1111
                7805=> soc wishbone read data result : send soc_cfg_read_event
                7805=> soc_up_cfg_read : got soc_cfg_read_event
                7805=> Read soc_mb_interrupt_status [PASS] cfg_read_data_expect_value[0]=fffffff7, cfg_read_data_captured[0]=fffffff7
                8085=> soc_up_cfg_read : wbs_adr=30000044, wbs_sel=1111
                8085=> soc wishbone read data result : send soc_cfg_read_event
                8085=> soc_up_cfg_read : got soc_cfg_read_event
                8085=> Read soc_mb_interrupt_status [PASS] cfg_read_data_expect_value[0]=fffffff6, cfg_read_data_captured[0]=fffffff6
                8365=> soc_up_cfg_read : wbs_adr=30000048, wbs_sel=1111
                8365=> soc wishbone read data result : send soc_cfg_read_event
                8365=> soc_up_cfg_read : got soc_cfg_read_event
                8365=> Read soc_mb_interrupt_status [PASS] cfg_read_data_expect_value[0]=00000000, cfg_read_data_captured[0]=00000000
                8645=> soc_up_cfg_write : wbs_adr=30000000, wbs_sel=0001, wbs_wdata=00000001
mailbox_check: mailbox check
                8965=> soc_aa_cfg_write : wbs_adr=30002000, wbs_sel=1111, wbs_wdata=a5a5a5a5
                9445=> get soc_to_fpga_mailbox_write_addr_captured be : soc_to_fpga_mailbox_write_addr_captured =xxxxxxxx, fpga_is_as_tdata=f0002000
                9445=> get soc_to_fpga_mailbox_write_addr_captured af : soc_to_fpga_mailbox_write_addr_captured =f0002000, fpga_is_as_tdata=f0002000
                9685=> get soc_to_fpga_mailbox_write_data_captured be : soc_to_fpga_mailbox_write_data_captured =xxxxxxxx, fpga_is_as_tdata=a5a5a5a5
                9685=> get soc_to_fpga_mailbox_write_data_captured af : soc_to_fpga_mailbox_write_data_captured =a5a5a5a5, fpga_is_as_tdata=a5a5a5a5
                9685=> soc_to_fpga_mailbox_write_data_captured : send soc_to_fpga_mailbox_write_event
                9685=> mailbox_check : got soc_to_fpga_mailbox_write_event
-----------------
                9725=> fpga_axis_req send data, fpga_as_is_tupsb = 00000, fpga_as_is_tstrb = 0000, fpga_as_is_tkeep = 0000, fpga_as_is_tlast = 0, fpga_as_is_tdata = 00000000
                9765=> fpga_axis_req send data, fpga_as_is_tupsb = 00000, fpga_as_is_tstrb = 0000, fpga_as_is_tkeep = 0000, fpga_as_is_tlast = 0, fpga_as_is_tdata = 00000001
                9805=> fpga_axis_req send data, fpga_as_is_tupsb = 00000, fpga_as_is_tstrb = 0000, fpga_as_is_tkeep = 0000, fpga_as_is_tlast = 0, fpga_as_is_tdata = 00000002
                9845=> fpga_axis_req send data, fpga_as_is_tupsb = 00000, fpga_as_is_tstrb = 0000, fpga_as_is_tkeep = 0000, fpga_as_is_tlast = 0, fpga_as_is_tdata = 00000003
                9885=> fpga_axis_req send data, fpga_as_is_tupsb = 00000, fpga_as_is_tstrb = 0000, fpga_as_is_tkeep = 0000, fpga_as_is_tlast = 0, fpga_as_is_tdata = 00000004
                9925=> fpga_axis_req send data, fpga_as_is_tupsb = 00000, fpga_as_is_tstrb = 0000, fpga_as_is_tkeep = 0000, fpga_as_is_tlast = 0, fpga_as_is_tdata = 00000005
                9965=> fpga_axis_req send data, fpga_as_is_tupsb = 00000, fpga_as_is_tstrb = 0000, fpga_as_is_tkeep = 0000, fpga_as_is_tlast = 0, fpga_as_is_tdata = 00000006
               10005=> fpga_axis_req send data, fpga_as_is_tupsb = 00000, fpga_as_is_tstrb = 0000, fpga_as_is_tkeep = 0000, fpga_as_is_tlast = 0, fpga_as_is_tdata = 00000007
               10045=> fpga_axis_req send data, fpga_as_is_tupsb = 00000, fpga_as_is_tstrb = 0000, fpga_as_is_tkeep = 0000, fpga_as_is_tlast = 0, fpga_as_is_tdata = 00000008
               10085=> fpga_axis_req send data, fpga_as_is_tupsb = 00000, fpga_as_is_tstrb = 0000, fpga_as_is_tkeep = 0000, fpga_as_is_tlast = 0, fpga_as_is_tdata = 00000009
               10125=> fpga_axis_req send data, fpga_as_is_tupsb = 00000, fpga_as_is_tstrb = 0000, fpga_as_is_tkeep = 0000, fpga_as_is_tlast = 0, fpga_as_is_tdata = 0000000a
               10165=> fpga_axis_req send data, fpga_as_is_tupsb = 00000, fpga_as_is_tstrb = 0000, fpga_as_is_tkeep = 0000, fpga_as_is_tlast = 0, fpga_as_is_tdata = 0000000b
               10205=> fpga_axis_req send data, fpga_as_is_tupsb = 00000, fpga_as_is_tstrb = 0000, fpga_as_is_tkeep = 0000, fpga_as_is_tlast = 0, fpga_as_is_tdata = 0000000c
               10245=> fpga_axis_req send data, fpga_as_is_tupsb = 00000, fpga_as_is_tstrb = 0000, fpga_as_is_tkeep = 0000, fpga_as_is_tlast = 0, fpga_as_is_tdata = 0000000d
               10285=> fpga_axis_req send data, fpga_as_is_tupsb = 00000, fpga_as_is_tstrb = 0000, fpga_as_is_tkeep = 0000, fpga_as_is_tlast = 0, fpga_as_is_tdata = 0000000e
               10325=> fpga_axis_req send data, fpga_as_is_tupsb = 00000, fpga_as_is_tstrb = 0000, fpga_as_is_tkeep = 0000, fpga_as_is_tlast = 0, fpga_as_is_tdata = 0000000f
               10365=> fpga_axis_req send data, fpga_as_is_tupsb = 00000, fpga_as_is_tstrb = 0000, fpga_as_is_tkeep = 0000, fpga_as_is_tlast = 0, fpga_as_is_tdata = 00000010
               10645=> get soc_to_fpga_axis be : soc_to_fpga_axis_captured_count=  0,  soc_to_fpga_axis_captured[  0] =xxxxxxxxxxxx, fpga_is_as_tdata=00000000
               10645=> get soc_to_fpga_axis af : soc_to_fpga_axis_captured_count=  0,  soc_to_fpga_axis_captured[  0] =000000000000, fpga_is_as_tdata=00000000
               11205=> get soc_to_fpga_axis be : soc_to_fpga_axis_captured_count=  1,  soc_to_fpga_axis_captured[  1] =xxxxxxxxxxxx, fpga_is_as_tdata=00000000
               11205=> get soc_to_fpga_axis af : soc_to_fpga_axis_captured_count=  1,  soc_to_fpga_axis_captured[  1] =000000000000, fpga_is_as_tdata=00000000
               11765=> get soc_to_fpga_axis be : soc_to_fpga_axis_captured_count=  2,  soc_to_fpga_axis_captured[  2] =xxxxxxxxxxxx, fpga_is_as_tdata=fffffff6
               11765=> get soc_to_fpga_axis af : soc_to_fpga_axis_captured_count=  2,  soc_to_fpga_axis_captured[  2] =0000fffffff6, fpga_is_as_tdata=fffffff6
               12325=> get soc_to_fpga_axis be : soc_to_fpga_axis_captured_count=  3,  soc_to_fpga_axis_captured[  3] =xxxxxxxxxxxx, fpga_is_as_tdata=ffffffe3
               12325=> get soc_to_fpga_axis af : soc_to_fpga_axis_captured_count=  3,  soc_to_fpga_axis_captured[  3] =0000ffffffe3, fpga_is_as_tdata=ffffffe3
               12885=> get soc_to_fpga_axis be : soc_to_fpga_axis_captured_count=  4,  soc_to_fpga_axis_captured[  4] =xxxxxxxxxxxx, fpga_is_as_tdata=ffffffe7
               12885=> get soc_to_fpga_axis af : soc_to_fpga_axis_captured_count=  4,  soc_to_fpga_axis_captured[  4] =0000ffffffe7, fpga_is_as_tdata=ffffffe7
               13445=> get soc_to_fpga_axis be : soc_to_fpga_axis_captured_count=  5,  soc_to_fpga_axis_captured[  5] =xxxxxxxxxxxx, fpga_is_as_tdata=00000023
               13445=> get soc_to_fpga_axis af : soc_to_fpga_axis_captured_count=  5,  soc_to_fpga_axis_captured[  5] =000000000023, fpga_is_as_tdata=00000023
               14005=> get soc_to_fpga_axis be : soc_to_fpga_axis_captured_count=  6,  soc_to_fpga_axis_captured[  6] =xxxxxxxxxxxx, fpga_is_as_tdata=0000009e
               14005=> get soc_to_fpga_axis af : soc_to_fpga_axis_captured_count=  6,  soc_to_fpga_axis_captured[  6] =00000000009e, fpga_is_as_tdata=0000009e
               14565=> get soc_to_fpga_axis be : soc_to_fpga_axis_captured_count=  7,  soc_to_fpga_axis_captured[  7] =xxxxxxxxxxxx, fpga_is_as_tdata=00000151
               14565=> get soc_to_fpga_axis af : soc_to_fpga_axis_captured_count=  7,  soc_to_fpga_axis_captured[  7] =000000000151, fpga_is_as_tdata=00000151
               15125=> get soc_to_fpga_axis be : soc_to_fpga_axis_captured_count=  8,  soc_to_fpga_axis_captured[  8] =xxxxxxxxxxxx, fpga_is_as_tdata=0000021b
               15125=> get soc_to_fpga_axis af : soc_to_fpga_axis_captured_count=  8,  soc_to_fpga_axis_captured[  8] =00000000021b, fpga_is_as_tdata=0000021b
               15245=> fpga_axis_req send data, fpga_as_is_tupsb = 00000, fpga_as_is_tstrb = 0000, fpga_as_is_tkeep = 0000, fpga_as_is_tlast = 0, fpga_as_is_tdata = 00000011
               15285=> fpga_axis_req send data, fpga_as_is_tupsb = 00000, fpga_as_is_tstrb = 0000, fpga_as_is_tkeep = 0000, fpga_as_is_tlast = 0, fpga_as_is_tdata = 00000012
               15325=> fpga_axis_req send data, fpga_as_is_tupsb = 00000, fpga_as_is_tstrb = 0000, fpga_as_is_tkeep = 0000, fpga_as_is_tlast = 0, fpga_as_is_tdata = 00000013
               15365=> fpga_axis_req send data, fpga_as_is_tupsb = 00000, fpga_as_is_tstrb = 0000, fpga_as_is_tkeep = 0000, fpga_as_is_tlast = 0, fpga_as_is_tdata = 00000014
               15405=> fpga_axis_req send data, fpga_as_is_tupsb = 00000, fpga_as_is_tstrb = 0000, fpga_as_is_tkeep = 0000, fpga_as_is_tlast = 0, fpga_as_is_tdata = 00000015
               15445=> fpga_axis_req send data, fpga_as_is_tupsb = 00000, fpga_as_is_tstrb = 0000, fpga_as_is_tkeep = 0000, fpga_as_is_tlast = 0, fpga_as_is_tdata = 00000016
               15485=> fpga_axis_req send data, fpga_as_is_tupsb = 00000, fpga_as_is_tstrb = 0000, fpga_as_is_tkeep = 0000, fpga_as_is_tlast = 0, fpga_as_is_tdata = 00000017
               15525=> fpga_axis_req send data, fpga_as_is_tupsb = 00000, fpga_as_is_tstrb = 0000, fpga_as_is_tkeep = 0000, fpga_as_is_tlast = 0, fpga_as_is_tdata = 00000018
               15565=> fpga_axis_req send data, fpga_as_is_tupsb = 00000, fpga_as_is_tstrb = 0000, fpga_as_is_tkeep = 0000, fpga_as_is_tlast = 0, fpga_as_is_tdata = 00000019
               15685=> get soc_to_fpga_axis be : soc_to_fpga_axis_captured_count=  9,  soc_to_fpga_axis_captured[  9] =xxxxxxxxxxxx, fpga_is_as_tdata=000002dc
               15685=> get soc_to_fpga_axis af : soc_to_fpga_axis_captured_count=  9,  soc_to_fpga_axis_captured[  9] =0000000002dc, fpga_is_as_tdata=000002dc
               16245=> get soc_to_fpga_axis be : soc_to_fpga_axis_captured_count= 10,  soc_to_fpga_axis_captured[ 10] =xxxxxxxxxxxx, fpga_is_as_tdata=00000393
               16245=> get soc_to_fpga_axis af : soc_to_fpga_axis_captured_count= 10,  soc_to_fpga_axis_captured[ 10] =000000000393, fpga_is_as_tdata=00000393
               16805=> get soc_to_fpga_axis be : soc_to_fpga_axis_captured_count= 11,  soc_to_fpga_axis_captured[ 11] =xxxxxxxxxxxx, fpga_is_as_tdata=0000044a
               16805=> get soc_to_fpga_axis af : soc_to_fpga_axis_captured_count= 11,  soc_to_fpga_axis_captured[ 11] =00000000044a, fpga_is_as_tdata=0000044a
               17365=> get soc_to_fpga_axis be : soc_to_fpga_axis_captured_count= 12,  soc_to_fpga_axis_captured[ 12] =xxxxxxxxxxxx, fpga_is_as_tdata=00000501
               17365=> get soc_to_fpga_axis af : soc_to_fpga_axis_captured_count= 12,  soc_to_fpga_axis_captured[ 12] =000000000501, fpga_is_as_tdata=00000501
               17925=> get soc_to_fpga_axis be : soc_to_fpga_axis_captured_count= 13,  soc_to_fpga_axis_captured[ 13] =xxxxxxxxxxxx, fpga_is_as_tdata=000005b8
               17925=> get soc_to_fpga_axis af : soc_to_fpga_axis_captured_count= 13,  soc_to_fpga_axis_captured[ 13] =0000000005b8, fpga_is_as_tdata=000005b8
               18485=> get soc_to_fpga_axis be : soc_to_fpga_axis_captured_count= 14,  soc_to_fpga_axis_captured[ 14] =xxxxxxxxxxxx, fpga_is_as_tdata=0000066f
               18485=> get soc_to_fpga_axis af : soc_to_fpga_axis_captured_count= 14,  soc_to_fpga_axis_captured[ 14] =00000000066f, fpga_is_as_tdata=0000066f
               19045=> get soc_to_fpga_axis be : soc_to_fpga_axis_captured_count= 15,  soc_to_fpga_axis_captured[ 15] =xxxxxxxxxxxx, fpga_is_as_tdata=00000726
               19045=> get soc_to_fpga_axis af : soc_to_fpga_axis_captured_count= 15,  soc_to_fpga_axis_captured[ 15] =000000000726, fpga_is_as_tdata=00000726
               19605=> get soc_to_fpga_axis be : soc_to_fpga_axis_captured_count= 16,  soc_to_fpga_axis_captured[ 16] =xxxxxxxxxxxx, fpga_is_as_tdata=000007dd
               19605=> get soc_to_fpga_axis af : soc_to_fpga_axis_captured_count= 16,  soc_to_fpga_axis_captured[ 16] =0000000007dd, fpga_is_as_tdata=000007dd
               20165=> get soc_to_fpga_axis be : soc_to_fpga_axis_captured_count= 17,  soc_to_fpga_axis_captured[ 17] =xxxxxxxxxxxx, fpga_is_as_tdata=00000894
               20165=> get soc_to_fpga_axis af : soc_to_fpga_axis_captured_count= 17,  soc_to_fpga_axis_captured[ 17] =000000000894, fpga_is_as_tdata=00000894
               20285=> fpga_axis_req send data, fpga_as_is_tupsb = 00000, fpga_as_is_tstrb = 0000, fpga_as_is_tkeep = 0000, fpga_as_is_tlast = 0, fpga_as_is_tdata = 0000001a
               20325=> fpga_axis_req send data, fpga_as_is_tupsb = 00000, fpga_as_is_tstrb = 0000, fpga_as_is_tkeep = 0000, fpga_as_is_tlast = 0, fpga_as_is_tdata = 0000001b
               20365=> fpga_axis_req send data, fpga_as_is_tupsb = 00000, fpga_as_is_tstrb = 0000, fpga_as_is_tkeep = 0000, fpga_as_is_tlast = 0, fpga_as_is_tdata = 0000001c
               20405=> fpga_axis_req send data, fpga_as_is_tupsb = 00000, fpga_as_is_tstrb = 0000, fpga_as_is_tkeep = 0000, fpga_as_is_tlast = 0, fpga_as_is_tdata = 0000001d
               20445=> fpga_axis_req send data, fpga_as_is_tupsb = 00000, fpga_as_is_tstrb = 0000, fpga_as_is_tkeep = 0000, fpga_as_is_tlast = 0, fpga_as_is_tdata = 0000001e
               20485=> fpga_axis_req send data, fpga_as_is_tupsb = 00000, fpga_as_is_tstrb = 0000, fpga_as_is_tkeep = 0000, fpga_as_is_tlast = 0, fpga_as_is_tdata = 0000001f
               20525=> fpga_axis_req send data, fpga_as_is_tupsb = 00000, fpga_as_is_tstrb = 0000, fpga_as_is_tkeep = 0000, fpga_as_is_tlast = 0, fpga_as_is_tdata = 00000020
               20565=> fpga_axis_req send data, fpga_as_is_tupsb = 00000, fpga_as_is_tstrb = 0000, fpga_as_is_tkeep = 0000, fpga_as_is_tlast = 0, fpga_as_is_tdata = 00000021
               20605=> fpga_axis_req send data, fpga_as_is_tupsb = 00000, fpga_as_is_tstrb = 0000, fpga_as_is_tkeep = 0000, fpga_as_is_tlast = 0, fpga_as_is_tdata = 00000022
               20725=> get soc_to_fpga_axis be : soc_to_fpga_axis_captured_count= 18,  soc_to_fpga_axis_captured[ 18] =xxxxxxxxxxxx, fpga_is_as_tdata=0000094b
               20725=> get soc_to_fpga_axis af : soc_to_fpga_axis_captured_count= 18,  soc_to_fpga_axis_captured[ 18] =00000000094b, fpga_is_as_tdata=0000094b
               21285=> get soc_to_fpga_axis be : soc_to_fpga_axis_captured_count= 19,  soc_to_fpga_axis_captured[ 19] =xxxxxxxxxxxx, fpga_is_as_tdata=00000a02
               21285=> get soc_to_fpga_axis af : soc_to_fpga_axis_captured_count= 19,  soc_to_fpga_axis_captured[ 19] =000000000a02, fpga_is_as_tdata=00000a02
               21845=> get soc_to_fpga_axis be : soc_to_fpga_axis_captured_count= 20,  soc_to_fpga_axis_captured[ 20] =xxxxxxxxxxxx, fpga_is_as_tdata=00000ab9
               21845=> get soc_to_fpga_axis af : soc_to_fpga_axis_captured_count= 20,  soc_to_fpga_axis_captured[ 20] =000000000ab9, fpga_is_as_tdata=00000ab9
               22405=> get soc_to_fpga_axis be : soc_to_fpga_axis_captured_count= 21,  soc_to_fpga_axis_captured[ 21] =xxxxxxxxxxxx, fpga_is_as_tdata=00000b70
               22405=> get soc_to_fpga_axis af : soc_to_fpga_axis_captured_count= 21,  soc_to_fpga_axis_captured[ 21] =000000000b70, fpga_is_as_tdata=00000b70
               22965=> get soc_to_fpga_axis be : soc_to_fpga_axis_captured_count= 22,  soc_to_fpga_axis_captured[ 22] =xxxxxxxxxxxx, fpga_is_as_tdata=00000c27
               22965=> get soc_to_fpga_axis af : soc_to_fpga_axis_captured_count= 22,  soc_to_fpga_axis_captured[ 22] =000000000c27, fpga_is_as_tdata=00000c27
               23525=> get soc_to_fpga_axis be : soc_to_fpga_axis_captured_count= 23,  soc_to_fpga_axis_captured[ 23] =xxxxxxxxxxxx, fpga_is_as_tdata=00000cde
               23525=> get soc_to_fpga_axis af : soc_to_fpga_axis_captured_count= 23,  soc_to_fpga_axis_captured[ 23] =000000000cde, fpga_is_as_tdata=00000cde
               24085=> get soc_to_fpga_axis be : soc_to_fpga_axis_captured_count= 24,  soc_to_fpga_axis_captured[ 24] =xxxxxxxxxxxx, fpga_is_as_tdata=00000d95
               24085=> get soc_to_fpga_axis af : soc_to_fpga_axis_captured_count= 24,  soc_to_fpga_axis_captured[ 24] =000000000d95, fpga_is_as_tdata=00000d95
               24645=> get soc_to_fpga_axis be : soc_to_fpga_axis_captured_count= 25,  soc_to_fpga_axis_captured[ 25] =xxxxxxxxxxxx, fpga_is_as_tdata=00000e4c
               24645=> get soc_to_fpga_axis af : soc_to_fpga_axis_captured_count= 25,  soc_to_fpga_axis_captured[ 25] =000000000e4c, fpga_is_as_tdata=00000e4c
               25205=> get soc_to_fpga_axis be : soc_to_fpga_axis_captured_count= 26,  soc_to_fpga_axis_captured[ 26] =xxxxxxxxxxxx, fpga_is_as_tdata=00000f03
               25205=> get soc_to_fpga_axis af : soc_to_fpga_axis_captured_count= 26,  soc_to_fpga_axis_captured[ 26] =000000000f03, fpga_is_as_tdata=00000f03
               25325=> fpga_axis_req send data, fpga_as_is_tupsb = 00000, fpga_as_is_tstrb = 0000, fpga_as_is_tkeep = 0000, fpga_as_is_tlast = 0, fpga_as_is_tdata = 00000023
               25365=> fpga_axis_req send data, fpga_as_is_tupsb = 00000, fpga_as_is_tstrb = 0000, fpga_as_is_tkeep = 0000, fpga_as_is_tlast = 0, fpga_as_is_tdata = 00000024
               25405=> fpga_axis_req send data, fpga_as_is_tupsb = 00000, fpga_as_is_tstrb = 0000, fpga_as_is_tkeep = 0000, fpga_as_is_tlast = 0, fpga_as_is_tdata = 00000025
               25445=> fpga_axis_req send data, fpga_as_is_tupsb = 00000, fpga_as_is_tstrb = 0000, fpga_as_is_tkeep = 0000, fpga_as_is_tlast = 0, fpga_as_is_tdata = 00000026
               25485=> fpga_axis_req send data, fpga_as_is_tupsb = 00000, fpga_as_is_tstrb = 0000, fpga_as_is_tkeep = 0000, fpga_as_is_tlast = 0, fpga_as_is_tdata = 00000027
               25525=> fpga_axis_req send data, fpga_as_is_tupsb = 00000, fpga_as_is_tstrb = 0000, fpga_as_is_tkeep = 0000, fpga_as_is_tlast = 0, fpga_as_is_tdata = 00000028
               25565=> fpga_axis_req send data, fpga_as_is_tupsb = 00000, fpga_as_is_tstrb = 0000, fpga_as_is_tkeep = 0000, fpga_as_is_tlast = 0, fpga_as_is_tdata = 00000029
               25605=> fpga_axis_req send data, fpga_as_is_tupsb = 00000, fpga_as_is_tstrb = 0000, fpga_as_is_tkeep = 0000, fpga_as_is_tlast = 0, fpga_as_is_tdata = 0000002a
               25645=> fpga_axis_req send data, fpga_as_is_tupsb = 00000, fpga_as_is_tstrb = 0000, fpga_as_is_tkeep = 0000, fpga_as_is_tlast = 0, fpga_as_is_tdata = 0000002b
